{
  "name": "CoreResolve",
  "license": {
    "type": "restricted"
  },
  "version": "1.0.10",
  "summary": "The App Studio LLC CoreResolve Framework",
  "description": "CoreResolve is an enterprise-quality framework licensed by The App Studio LLC for Apple platforms.",
  "homepage": "http://theappstudiollc.com",
  "authors": {
    "David S Mitchell": "ds.mitchell@theappstudiollc.com"
  },
  "source": {
    "git": "https://bitbucket.org/theappstudiollc/resolve",
    "branch": "master",
    "tag": "1.0.10",
    "submodules": false
  },
  "requires_arc": true,
  "platforms": {
    "ios": "9.3",
    "osx": "10.12",
    "tvos": "10.0",
    "watchos": "2.2"
  },
  "frameworks": ["CoreGraphics", "CoreText", "Foundation", "MapKit"],
  "ios": {
    "frameworks": ["AVFoundation", "CoreMedia", "QuartzCore", "UIKit"],
    "source_files": [
		"CoreResolve/Cloud API/*.{swift,strings}",
		"CoreResolve/CoreLayout/*.{swift,strings}",
		"CoreResolve/iOS/*.{swift,strings}",
		"CoreResolve/Logging/*.{swift,strings}",
		"CoreResolve/UIKit/*.{swift,strings}",
		"CoreResolve/User Notifications/*.{swift,strings}"
    ]
  },
  "osx": {
    "frameworks": ["AVFoundation", "Cocoa", "CoreMedia", "QuartzCore"],
    "source_files": [
		"CoreResolve/Cloud API/*.{swift,strings}",
		"CoreResolve/CoreLayout/*.{swift,strings}",
		"CoreResolve/Logging/*.{swift,strings}",
		"CoreResolve/macOS/*.{swift,strings}",
		"CoreResolve/UIKit/*.{swift,strings}",
		"CoreResolve/User Notifications/*.{swift,strings}"
    ]
  },
  "tvos": {
    "frameworks": ["AVFoundation", "CoreMedia", "QuartzCore", "UIKit"],
    "source_files": [
		"CoreResolve/Cloud API/*.{swift,strings}",
		"CoreResolve/CoreLayout/*.{swift,strings}",
		"CoreResolve/Logging/*.{swift,strings}",
		"CoreResolve/tvOS/*.{swift,strings}",
		"CoreResolve/UIKit/*.{swift,strings}",
		"CoreResolve/User Notifications/*.{swift,strings}"
    ]
  },
  "watchos": {
    "frameworks": ["UIKit"],
    "source_files": [
		"CoreResolve/Cloud API/*.{swift,strings}",
		"CoreResolve/CoreLayout/*.{swift,strings}",
		"CoreResolve/Logging/*.{swift,strings}",
		"CoreResolve/UIKit/*.{swift,strings}",
		"CoreResolve/User Notifications/*.{swift,strings}",
		"CoreResolve/watchOS/*.{swift,strings}"
    ]
  },
  "default_subspecs": [
    "Common",
    "CoreData",
    "CoreFile"
  ],
  "subspecs": [
    {
      "name": "Common",
      "source_files": [
                  "CoreResolve/Common/**/*.{h,m,swift,strings}"
      ]
    },
    {
      "name": "CoreData",
      "frameworks": ["CoreData"],
      "source_files": [
                  "CoreResolve/CoreData/*.{swift,strings}"
      ]
    },
    {
      "name": "CoreFile",
      "source_files": [
                  "CoreResolve/CoreFile/**/*.{swift,strings}"
      ]
    },
    {
      "name": "CoreLocation",
      "frameworks": ["CoreLocation"],
      "source_files": [
                  "CoreResolve/CoreLocation/*.{swift,strings}"
      ]
    },
    {
      "name": "MultipeerConnectivity",
      "frameworks": ["MultipeerConnectivity"],
      "source_files": [
                  "CoreResolve/MultipeerConnectivity/**/*.{swift,strings}"
      ]
    }
  ]
}
