{
  "name": "ASEnterprise",
  "license": {
    "type": "zlib"
  },
  "version": "1.9.3",
  "summary": "The App Studio LLC Objective C Enterprise Source",
  "description": "ASEnterprise is a simple but useful library for Objective C Applications.",
  "homepage": "http://theappstudiollc.com",
  "authors": {
    "David S Mitchell": "ds.mitchell@theappstudiollc.com"
  },
  "source": {
    "git": "https://bitbucket.org/theappstudiollc/aslib",
    "branch": "master",
    "tag": "1.9.3",
    "submodules": false
  },
  "requires_arc": true,
  "platforms": {
    "ios": "9.0",
    "osx": "10.11",
    "tvos": "9.0",
    "watchos": "2.0"
  },
  "frameworks": ["CoreData", "CoreGraphics", "CoreLocation", "CoreText", "Foundation", "MapKit"],
  "ios": {
    "frameworks": ["AVFoundation", "CoreMedia", "MultipeerConnectivity", "QuartzCore", "UIKit"],
    "source_files": [
      "ASEnterprise-Common/*.{h,m}",
      "ASEnterprise-iOS/*.{h,m}"
    ]
  },
  "osx": {
    "frameworks": ["AVFoundation", "Cocoa", "CoreMedia", "MultipeerConnectivity", "QuartzCore"],
    "source_files": [
      "ASEnterprise-Common/*.{h,m}",
      "ASEnterprise-macOS/*.{h,m}"
    ]
  },
  "tvos": {
    "frameworks": ["AVFoundation", "CoreMedia", "MultipeerConnectivity", "QuartzCore", "UIKit"],
    "source_files": [
      "ASEnterprise-Common/*.{h,m}",
      "ASEnterprise-tvOS/*.{h,m}"
    ]
  },
  "watchos": {
    "frameworks": ["UIKit"],
    "source_files": [
      "ASEnterprise-Common/*.{h,m}",
      "ASEnterprise-watchOS/*.{h,m}"
    ]
  }
}
